
{
  "name": "angular2-seed",
  "version": false,
  "dependencies": {},
  "ambientDependencies": {
    "es6-collections": "registry:dt/es6-collections#0.5.1+20160215162030",
    "es6-promise": "registry:dt/es6-promise#0.0.0+20160221190517",
    "node": "registry:dt/node#4.0.0+20160319033040"
  }
}